module gitlab.com/gtsh77-werkstatt/grpc-captcha

go 1.21

require (
	github.com/ardanlabs/conf/v3 v3.1.7
	github.com/go-chi/chi/v5 v5.1.0
	github.com/go-chi/cors v1.2.1
	github.com/golang/protobuf v1.5.4
	github.com/google/uuid v1.6.0
	github.com/grpc-ecosystem/go-grpc-prometheus v1.2.0
	github.com/jmoiron/sqlx v1.4.0
	github.com/prometheus/client_golang v1.19.1
	github.com/redis/go-redis/v9 v9.6.1
	go.uber.org/zap v1.27.0
	google.golang.org/grpc v1.65.0
	google.golang.org/protobuf v1.34.2
)

require (
	github.com/beorn7/perks v1.0.1 // indirect
	github.com/cespare/xxhash/v2 v2.3.0 // indirect
	github.com/dgryski/go-rendezvous v0.0.0-20200823014737-9f7001d12a5f // indirect
	github.com/prometheus/client_model v0.5.0 // indirect
	github.com/prometheus/common v0.48.0 // indirect
	github.com/prometheus/procfs v0.12.0 // indirect
	go.uber.org/multierr v1.10.0 // indirect
	golang.org/x/net v0.25.0 // indirect
	golang.org/x/sys v0.20.0 // indirect
	golang.org/x/text v0.15.0 // indirect
	google.golang.org/genproto/googleapis/rpc v0.0.0-20240528184218-531527333157 // indirect
)
